{
"Fighter":[
  {"water":0,"fire":0,"earth":10,"shadow":0, "name":"Gaïa Clash"},
  {"water":0,"fire":10,"earth":0,"shadow":0, "name":"Fire Slash"},
  {"water":10,"fire":0,"earth":0,"shadow":0, "name":"Neptune hit"},
  {"water":10,"fire":10,"earth":0,"shadow":2, "name":"Heal sword"}
],

"Thief":[
  {"water":4,"fire":4,"earth":2,"shadow":0, "name":"Mug !"},
  {"water":2,"fire":4,"earth":4,"shadow":0, "name":"Back stab !"},
  {"water":0,"fire":0,"earth":0,"shadow":10, "name":"Slice in the night"},
  {"water":10,"fire":10,"earth":0,"shadow":2, "name":"Heal "}
],

"Wizard":[
  {"water":5,"fire":3,"earth":2,"shadow":0, "name":"Vanishing Bloom"},
  {"water":0,"fire":5,"earth":2,"shadow":2, "name":"Breath of dragoon"},
  {"water":5,"fire":0,"earth":0,"shadow":5, "name":"Valkyre of Poseidon"},
  {"water":10,"fire":10,"earth":0,"shadow":2, "name":"Neptune hit"}
],

"Paladin":[
  {"water":0,"fire":8,"earth":2,"shadow":0, "name":"Hammer of blossom"},
  {"water":0,"fire":4,"earth":4,"shadow":0, "name":"Hit by the light"},
  {"water":0,"fire":0,"earth":0,"shadow":10, "name":"Thunder Storm"},
  {"water":10,"fire":10,"earth":0,"shadow":2, "name":"Neptune hit"}
],

"Little Mage":[
  {"water":0,"fire":8,"earth":2,"shadow":0, "name":"Hammer of blossom"},
  {"water":0,"fire":4,"earth":4,"shadow":0, "name":"Hit by the light"},
  {"water":0,"fire":0,"earth":0,"shadow":10, "name":"Thunder Storm"},
  {"water":10,"fire":10,"earth":0,"shadow":2, "name":"Neptune hit"}
],

"Mecabird":[
  {"water":0,"fire":8,"earth":2,"shadow":0, "name":"Hammer of blossom"},
  {"water":0,"fire":4,"earth":4,"shadow":0, "name":"Hit by the light"},
  {"water":0,"fire":0,"earth":0,"shadow":10, "name":"Thunder Storm"}
],

"Ghost":[
  {"water":0,"fire":8,"earth":2,"shadow":0, "name":"Hammer of blossom"},
  {"water":0,"fire":4,"earth":4,"shadow":0, "name":"Hit by the light"},
  {"water":0,"fire":0,"earth":0,"shadow":10, "name":"Thunder Storm"}
]


}